example_id                                                  | status | run_time        |
----------------------------------------------------------- | ------ | --------------- |
./spec/requests/reward_request_spec.rb[1:1:1]               | passed | 0.06762 seconds |
./spec/requests/reward_request_spec.rb[1:1:2]               | passed | 0.00409 seconds |
./spec/services/rewards/calculator_spec.rb[1:1:1]           | passed | 0.00069 seconds |
./spec/services/rewards/calculator_spec.rb[1:1:2]           | passed | 0.001 seconds   |
./spec/services/rewards/formatted_row_spec.rb[1:1:1:1]      | passed | 0.00181 seconds |
./spec/services/rewards/formatted_row_spec.rb[1:1:1:2]      | passed | 0.0012 seconds  |
./spec/services/rewards/formatted_row_spec.rb[1:1:1:3]      | passed | 0.00061 seconds |
./spec/services/rewards/formatted_row_spec.rb[1:1:1:4]      | passed | 0.00155 seconds |
./spec/services/rewards/formatted_row_spec.rb[1:2:1]        | passed | 0.00075 seconds |
./spec/services/rewards/formatter_spec.rb[1:1:1:1]          | passed | 0.00058 seconds |
./spec/services/rewards/formatter_spec.rb[1:1:1:2]          | passed | 0.00057 seconds |
./spec/services/rewards/formatter_spec.rb[1:1:1:3]          | passed | 0.00059 seconds |
./spec/services/rewards/formatter_spec.rb[1:1:1:4]          | passed | 0.00054 seconds |
./spec/services/rewards/formatter_spec.rb[1:2:1]            | passed | 0.00071 seconds |
./spec/services/rewards/node_spec.rb[1:1:1]                 | passed | 0.00052 seconds |
./spec/services/rewards/tree_spec.rb[1:1:1]                 | passed | 0.00048 seconds |
./spec/services/rewards/tree_spec.rb[1:2:1]                 | passed | 0.00052 seconds |
./spec/services/rewards/tree_spec.rb[1:3:1]                 | passed | 0.00044 seconds |
./spec/services/rewards/tree_spec.rb[1:3:2]                 | passed | 0.00049 seconds |
./spec/services/rewards/tree_spec.rb[1:3:3]                 | passed | 0.00045 seconds |
./spec/services/rewards/validators/input_spec.rb[1:1:1:1:1] | passed | 0.00141 seconds |
./spec/services/rewards/validators/input_spec.rb[1:1:1:2:1] | passed | 0.00362 seconds |
./spec/services/rewards/validators/input_spec.rb[1:1:1:3:1] | passed | 0.00299 seconds |
./spec/services/rewards/validators/input_spec.rb[1:1:2:1:1] | passed | 0.00116 seconds |
./spec/services/rewards/validators/input_spec.rb[1:1:2:1:2] | passed | 0.0026 seconds  |
./spec/services/rewards/validators/input_spec.rb[1:1:2:2:1] | passed | 0.00058 seconds |
./spec/services/rewards/validators/input_spec.rb[1:1:2:2:2] | passed | 0.00277 seconds |
./spec/services/rewards/validators/input_spec.rb[1:1:2:3:1] | passed | 0.00058 seconds |
./spec/services/rewards/validators/input_spec.rb[1:1:2:3:2] | passed | 0.00226 seconds |
./spec/services/rewards/validators/input_spec.rb[1:1:2:4:1] | passed | 0.00095 seconds |
./spec/services/rewards/validators/input_spec.rb[1:1:2:4:2] | passed | 0.02278 seconds |
./spec/services/rewards/validators/input_spec.rb[1:1:2:5:1] | passed | 0.00068 seconds |
./spec/services/rewards/validators/input_spec.rb[1:1:2:5:2] | passed | 0.00344 seconds |
./spec/services/rewards/validators/input_spec.rb[1:1:2:6:1] | passed | 0.00099 seconds |
./spec/services/rewards/validators/input_spec.rb[1:1:2:6:2] | passed | 0.00361 seconds |
